-- Merging decision tree log ---
manifest
ADDED from C:\Users\Marko\Desktop\Posao\BCoolIT\sensortests\SecurazeDiagnose\app\src\main\AndroidManifest.xml:2:1-102:12
INJECTED from C:\Users\Marko\Desktop\Posao\BCoolIT\sensortests\SecurazeDiagnose\app\src\main\AndroidManifest.xml:2:1-102:12
INJECTED from C:\Users\Marko\Desktop\Posao\BCoolIT\sensortests\SecurazeDiagnose\app\src\main\AndroidManifest.xml:2:1-102:12
INJECTED from C:\Users\Marko\Desktop\Posao\BCoolIT\sensortests\SecurazeDiagnose\app\src\main\AndroidManifest.xml:2:1-102:12
MERGED from [com.google.android.material:material:1.0.0] C:\Users\Marko\.gradle\caches\transforms-2\files-2.1\7be45ee3c07fb3d387ee2be5c0852f62\material-1.0.0\AndroidManifest.xml:17:1-24:12
MERGED from [androidx.appcompat:appcompat:1.1.0] C:\Users\Marko\.gradle\caches\transforms-2\files-2.1\71253392faec5a8e0f4f575c1c9c6a8b\appcompat-1.1.0\AndroidManifest.xml:17:1-24:12
MERGED from [androidx.constraintlayout:constraintlayout:1.1.3] C:\Users\Marko\.gradle\caches\transforms-2\files-2.1\0e0fe41c067e2b2018d823d8c9a4ac07\constraintlayout-1.1.3\AndroidManifest.xml:2:1-11:12
MERGED from [androidx.legacy:legacy-support-v4:1.0.0] C:\Users\Marko\.gradle\caches\transforms-2\files-2.1\69158a490d837cbf451556bacc034d65\legacy-support-v4-1.0.0\AndroidManifest.xml:17:1-22:12
MERGED from [androidx.recyclerview:recyclerview:1.1.0] C:\Users\Marko\.gradle\caches\transforms-2\files-2.1\3e05208cda78cf969ab04b730f953742\recyclerview-1.1.0\AndroidManifest.xml:17:1-24:12
MERGED from [androidx.fragment:fragment:1.1.0] C:\Users\Marko\.gradle\caches\transforms-2\files-2.1\b1c311e5aba9f3af0345511bded4aec1\fragment-1.1.0\AndroidManifest.xml:17:1-24:12
MERGED from [androidx.appcompat:appcompat-resources:1.1.0] C:\Users\Marko\.gradle\caches\transforms-2\files-2.1\1a323d19f6f8ffabf3a6554a32da4fcf\appcompat-resources-1.1.0\AndroidManifest.xml:17:1-24:12
MERGED from [androidx.legacy:legacy-support-core-ui:1.0.0] C:\Users\Marko\.gradle\caches\transforms-2\files-2.1\48728fc3be15cb5e686e524e85e7fabf\legacy-support-core-ui-1.0.0\AndroidManifest.xml:17:1-22:12
MERGED from [androidx.drawerlayout:drawerlayout:1.0.0] C:\Users\Marko\.gradle\caches\transforms-2\files-2.1\5beee82e5ae80fcfe800829e26780711\drawerlayout-1.0.0\AndroidManifest.xml:17:1-22:12
MERGED from [androidx.media:media:1.0.0] C:\Users\Marko\.gradle\caches\transforms-2\files-2.1\f966514bbf29a49db992e0518d391321\media-1.0.0\AndroidManifest.xml:17:1-22:12
MERGED from [androidx.legacy:legacy-support-core-utils:1.0.0] C:\Users\Marko\.gradle\caches\transforms-2\files-2.1\888a191c239c67b979e9291108e5d8bb\legacy-support-core-utils-1.0.0\AndroidManifest.xml:17:1-22:12
MERGED from [androidx.viewpager:viewpager:1.0.0] C:\Users\Marko\.gradle\caches\transforms-2\files-2.1\0a6198b370cb00308b55faa5e39a04c3\viewpager-1.0.0\AndroidManifest.xml:17:1-22:12
MERGED from [androidx.coordinatorlayout:coordinatorlayout:1.0.0] C:\Users\Marko\.gradle\caches\transforms-2\files-2.1\0acb35ffd4f76c94f541b2dbd86c08e1\coordinatorlayout-1.0.0\AndroidManifest.xml:17:1-22:12
MERGED from [androidx.slidingpanelayout:slidingpanelayout:1.0.0] C:\Users\Marko\.gradle\caches\transforms-2\files-2.1\14eb8b7a6577bf32f1e430b5e6efcd8e\slidingpanelayout-1.0.0\AndroidManifest.xml:17:1-22:12
MERGED from [androidx.customview:customview:1.0.0] C:\Users\Marko\.gradle\caches\transforms-2\files-2.1\f1986a27226319c26ad9cc06042f734a\customview-1.0.0\AndroidManifest.xml:17:1-22:12
MERGED from [androidx.transition:transition:1.0.0] C:\Users\Marko\.gradle\caches\transforms-2\files-2.1\f195ef5065fc49f8b7e113c5bea74720\transition-1.0.0\AndroidManifest.xml:17:1-22:12
MERGED from [androidx.loader:loader:1.0.0] C:\Users\Marko\.gradle\caches\transforms-2\files-2.1\ca29a0e07fb08e384809dd4651a8ea16\loader-1.0.0\AndroidManifest.xml:17:1-22:12
MERGED from [androidx.activity:activity:1.0.0] C:\Users\Marko\.gradle\caches\transforms-2\files-2.1\ac3ef5c9673bd27c40eacec46e2c5b0d\activity-1.0.0\AndroidManifest.xml:17:1-24:12
MERGED from [androidx.vectordrawable:vectordrawable-animated:1.1.0] C:\Users\Marko\.gradle\caches\transforms-2\files-2.1\c9bf732cc1a9b5e774d98ba20fae0497\vectordrawable-animated-1.1.0\AndroidManifest.xml:17:1-24:12
MERGED from [androidx.vectordrawable:vectordrawable:1.1.0] C:\Users\Marko\.gradle\caches\transforms-2\files-2.1\1b20c722bc691b927fab492e4d108a6d\vectordrawable-1.1.0\AndroidManifest.xml:17:1-24:12
MERGED from [androidx.swiperefreshlayout:swiperefreshlayout:1.0.0] C:\Users\Marko\.gradle\caches\transforms-2\files-2.1\ca312c99fbfc3bf90490b571cc0b4011\swiperefreshlayout-1.0.0\AndroidManifest.xml:17:1-22:12
MERGED from [androidx.asynclayoutinflater:asynclayoutinflater:1.0.0] C:\Users\Marko\.gradle\caches\transforms-2\files-2.1\00a27da1e6f769f8fb1788101112184b\asynclayoutinflater-1.0.0\AndroidManifest.xml:17:1-22:12
MERGED from [androidx.core:core:1.1.0] C:\Users\Marko\.gradle\caches\transforms-2\files-2.1\c69dff51eda740b9d8e41de9637149e8\core-1.1.0\AndroidManifest.xml:17:1-26:12
MERGED from [androidx.cursoradapter:cursoradapter:1.0.0] C:\Users\Marko\.gradle\caches\transforms-2\files-2.1\e5e374c843b6cb1589a5476668cd23d4\cursoradapter-1.0.0\AndroidManifest.xml:17:1-22:12
MERGED from [androidx.cardview:cardview:1.0.0] C:\Users\Marko\.gradle\caches\transforms-2\files-2.1\e2a1a382ba7c1384f9093f92f5c6ea6f\cardview-1.0.0\AndroidManifest.xml:17:1-22:12
MERGED from [androidx.versionedparcelable:versionedparcelable:1.1.0] C:\Users\Marko\.gradle\caches\transforms-2\files-2.1\d0ea37240b8c08909789a805461c3b88\versionedparcelable-1.1.0\AndroidManifest.xml:17:1-27:12
MERGED from [androidx.documentfile:documentfile:1.0.0] C:\Users\Marko\.gradle\caches\transforms-2\files-2.1\defe0751ac7888b9aa596f170a8ee873\documentfile-1.0.0\AndroidManifest.xml:17:1-22:12
MERGED from [androidx.localbroadcastmanager:localbroadcastmanager:1.0.0] C:\Users\Marko\.gradle\caches\transforms-2\files-2.1\fcd38210d0f48f994e7225ffc9ea40e0\localbroadcastmanager-1.0.0\AndroidManifest.xml:17:1-22:12
MERGED from [androidx.print:print:1.0.0] C:\Users\Marko\.gradle\caches\transforms-2\files-2.1\169ff925d31c56a8bb3c241ae3dcc5b9\print-1.0.0\AndroidManifest.xml:17:1-22:12
MERGED from [androidx.interpolator:interpolator:1.0.0] C:\Users\Marko\.gradle\caches\transforms-2\files-2.1\da9110a1a889043c81fffacfb5ad5d5d\interpolator-1.0.0\AndroidManifest.xml:17:1-22:12
MERGED from [androidx.lifecycle:lifecycle-runtime:2.1.0] C:\Users\Marko\.gradle\caches\transforms-2\files-2.1\9c3b184d9a47f47ae8db4aac6eab8def\lifecycle-runtime-2.1.0\AndroidManifest.xml:17:1-22:12
MERGED from [androidx.lifecycle:lifecycle-viewmodel:2.1.0] C:\Users\Marko\.gradle\caches\transforms-2\files-2.1\d8e5b39117b461360a22101a391bc9c6\lifecycle-viewmodel-2.1.0\AndroidManifest.xml:17:1-22:12
MERGED from [androidx.savedstate:savedstate:1.0.0] C:\Users\Marko\.gradle\caches\transforms-2\files-2.1\3aa83e6e75b8a30f03b938590aafdd76\savedstate-1.0.0\AndroidManifest.xml:17:1-24:12
MERGED from [androidx.lifecycle:lifecycle-livedata:2.0.0] C:\Users\Marko\.gradle\caches\transforms-2\files-2.1\2180419d599ac4cc6581f5869fe8a168\lifecycle-livedata-2.0.0\AndroidManifest.xml:17:1-22:12
MERGED from [androidx.lifecycle:lifecycle-livedata-core:2.0.0] C:\Users\Marko\.gradle\caches\transforms-2\files-2.1\219a1c92e4147b4b27ae72aa4a9f1dfc\lifecycle-livedata-core-2.0.0\AndroidManifest.xml:17:1-22:12
MERGED from [androidx.arch.core:core-runtime:2.0.0] C:\Users\Marko\.gradle\caches\transforms-2\files-2.1\bd8e1bf22055b7f0592a240dfb63a736\core-runtime-2.0.0\AndroidManifest.xml:17:1-22:12
INJECTED from C:\Users\Marko\Desktop\Posao\BCoolIT\sensortests\SecurazeDiagnose\app\src\main\AndroidManifest.xml:2:1-102:12
INJECTED from C:\Users\Marko\Desktop\Posao\BCoolIT\sensortests\SecurazeDiagnose\app\src\main\AndroidManifest.xml:2:1-102:12
INJECTED from C:\Users\Marko\Desktop\Posao\BCoolIT\sensortests\SecurazeDiagnose\app\src\main\AndroidManifest.xml:2:1-102:12
	package
		ADDED from C:\Users\Marko\Desktop\Posao\BCoolIT\sensortests\SecurazeDiagnose\app\src\main\AndroidManifest.xml:4:5-43
		INJECTED from C:\Users\Marko\Desktop\Posao\BCoolIT\sensortests\SecurazeDiagnose\app\src\main\AndroidManifest.xml
		INJECTED from C:\Users\Marko\Desktop\Posao\BCoolIT\sensortests\SecurazeDiagnose\app\src\main\AndroidManifest.xml
	android:versionName
		INJECTED from C:\Users\Marko\Desktop\Posao\BCoolIT\sensortests\SecurazeDiagnose\app\src\main\AndroidManifest.xml
		ADDED from C:\Users\Marko\Desktop\Posao\BCoolIT\sensortests\SecurazeDiagnose\app\src\main\AndroidManifest.xml:2:1-102:12
		INJECTED from C:\Users\Marko\Desktop\Posao\BCoolIT\sensortests\SecurazeDiagnose\app\src\main\AndroidManifest.xml
	xmlns:tools
		ADDED from C:\Users\Marko\Desktop\Posao\BCoolIT\sensortests\SecurazeDiagnose\app\src\main\AndroidManifest.xml:3:5-51
	android:versionCode
		INJECTED from C:\Users\Marko\Desktop\Posao\BCoolIT\sensortests\SecurazeDiagnose\app\src\main\AndroidManifest.xml
		ADDED from C:\Users\Marko\Desktop\Posao\BCoolIT\sensortests\SecurazeDiagnose\app\src\main\AndroidManifest.xml:2:1-102:12
		INJECTED from C:\Users\Marko\Desktop\Posao\BCoolIT\sensortests\SecurazeDiagnose\app\src\main\AndroidManifest.xml
	xmlns:android
		ADDED from C:\Users\Marko\Desktop\Posao\BCoolIT\sensortests\SecurazeDiagnose\app\src\main\AndroidManifest.xml:2:11-69
uses-permission#android.permission.CAMERA
ADDED from C:\Users\Marko\Desktop\Posao\BCoolIT\sensortests\SecurazeDiagnose\app\src\main\AndroidManifest.xml:6:5-65
	android:name
		ADDED from C:\Users\Marko\Desktop\Posao\BCoolIT\sensortests\SecurazeDiagnose\app\src\main\AndroidManifest.xml:6:22-62
uses-permission#android.permission.READ_EXTERNAL_STORAGE
ADDED from C:\Users\Marko\Desktop\Posao\BCoolIT\sensortests\SecurazeDiagnose\app\src\main\AndroidManifest.xml:7:5-80
	android:name
		ADDED from C:\Users\Marko\Desktop\Posao\BCoolIT\sensortests\SecurazeDiagnose\app\src\main\AndroidManifest.xml:7:22-77
uses-permission#android.permission.WRITE_EXTERNAL_STORAGE
ADDED from C:\Users\Marko\Desktop\Posao\BCoolIT\sensortests\SecurazeDiagnose\app\src\main\AndroidManifest.xml:8:5-81
	android:name
		ADDED from C:\Users\Marko\Desktop\Posao\BCoolIT\sensortests\SecurazeDiagnose\app\src\main\AndroidManifest.xml:8:22-78
uses-permission#android.permission.RECORD_AUDIO
ADDED from C:\Users\Marko\Desktop\Posao\BCoolIT\sensortests\SecurazeDiagnose\app\src\main\AndroidManifest.xml:9:5-71
	android:name
		ADDED from C:\Users\Marko\Desktop\Posao\BCoolIT\sensortests\SecurazeDiagnose\app\src\main\AndroidManifest.xml:9:22-68
uses-permission#android.permission.BLUETOOTH
ADDED from C:\Users\Marko\Desktop\Posao\BCoolIT\sensortests\SecurazeDiagnose\app\src\main\AndroidManifest.xml:10:5-68
	android:name
		ADDED from C:\Users\Marko\Desktop\Posao\BCoolIT\sensortests\SecurazeDiagnose\app\src\main\AndroidManifest.xml:10:22-65
uses-permission#android.permission.BLUETOOTH_ADMIN
ADDED from C:\Users\Marko\Desktop\Posao\BCoolIT\sensortests\SecurazeDiagnose\app\src\main\AndroidManifest.xml:11:5-74
	android:name
		ADDED from C:\Users\Marko\Desktop\Posao\BCoolIT\sensortests\SecurazeDiagnose\app\src\main\AndroidManifest.xml:11:22-71
uses-permission#android.permission.CHANGE_WIFI_STATE
ADDED from C:\Users\Marko\Desktop\Posao\BCoolIT\sensortests\SecurazeDiagnose\app\src\main\AndroidManifest.xml:12:5-76
	android:name
		ADDED from C:\Users\Marko\Desktop\Posao\BCoolIT\sensortests\SecurazeDiagnose\app\src\main\AndroidManifest.xml:12:22-73
uses-permission#android.permission.ACCESS_WIFI_STATE
ADDED from C:\Users\Marko\Desktop\Posao\BCoolIT\sensortests\SecurazeDiagnose\app\src\main\AndroidManifest.xml:13:5-76
	android:name
		ADDED from C:\Users\Marko\Desktop\Posao\BCoolIT\sensortests\SecurazeDiagnose\app\src\main\AndroidManifest.xml:13:22-73
uses-permission#android.permission.ACCESS_NETWORK_STATE
ADDED from C:\Users\Marko\Desktop\Posao\BCoolIT\sensortests\SecurazeDiagnose\app\src\main\AndroidManifest.xml:14:5-79
	android:name
		ADDED from C:\Users\Marko\Desktop\Posao\BCoolIT\sensortests\SecurazeDiagnose\app\src\main\AndroidManifest.xml:14:22-76
uses-permission#android.permission.ACTIVITY_RECOGNITION
ADDED from C:\Users\Marko\Desktop\Posao\BCoolIT\sensortests\SecurazeDiagnose\app\src\main\AndroidManifest.xml:15:5-79
	android:name
		ADDED from C:\Users\Marko\Desktop\Posao\BCoolIT\sensortests\SecurazeDiagnose\app\src\main\AndroidManifest.xml:15:22-76
uses-permission#android.permission.USE_FINGERPRINT
ADDED from C:\Users\Marko\Desktop\Posao\BCoolIT\sensortests\SecurazeDiagnose\app\src\main\AndroidManifest.xml:16:5-74
	android:name
		ADDED from C:\Users\Marko\Desktop\Posao\BCoolIT\sensortests\SecurazeDiagnose\app\src\main\AndroidManifest.xml:16:22-71
uses-permission#android.permission.WRITE_SECURE_SETTINGS
ADDED from C:\Users\Marko\Desktop\Posao\BCoolIT\sensortests\SecurazeDiagnose\app\src\main\AndroidManifest.xml:17:5-19:47
	tools:ignore
		ADDED from C:\Users\Marko\Desktop\Posao\BCoolIT\sensortests\SecurazeDiagnose\app\src\main\AndroidManifest.xml:19:9-44
	android:name
		ADDED from C:\Users\Marko\Desktop\Posao\BCoolIT\sensortests\SecurazeDiagnose\app\src\main\AndroidManifest.xml:18:9-64
uses-permission#android.permission.ACCESS_FINE_LOCATION
ADDED from C:\Users\Marko\Desktop\Posao\BCoolIT\sensortests\SecurazeDiagnose\app\src\main\AndroidManifest.xml:20:5-79
	android:name
		ADDED from C:\Users\Marko\Desktop\Posao\BCoolIT\sensortests\SecurazeDiagnose\app\src\main\AndroidManifest.xml:20:22-76
uses-permission#android.permission.ACCESS_COARSE_LOCATION
ADDED from C:\Users\Marko\Desktop\Posao\BCoolIT\sensortests\SecurazeDiagnose\app\src\main\AndroidManifest.xml:21:5-81
	android:name
		ADDED from C:\Users\Marko\Desktop\Posao\BCoolIT\sensortests\SecurazeDiagnose\app\src\main\AndroidManifest.xml:21:22-78
uses-permission#android.permission.DUMP
ADDED from C:\Users\Marko\Desktop\Posao\BCoolIT\sensortests\SecurazeDiagnose\app\src\main\AndroidManifest.xml:22:5-24:47
	tools:ignore
		ADDED from C:\Users\Marko\Desktop\Posao\BCoolIT\sensortests\SecurazeDiagnose\app\src\main\AndroidManifest.xml:24:9-44
	android:name
		ADDED from C:\Users\Marko\Desktop\Posao\BCoolIT\sensortests\SecurazeDiagnose\app\src\main\AndroidManifest.xml:23:9-47
uses-feature#android.hardware.camera.autofocus
ADDED from C:\Users\Marko\Desktop\Posao\BCoolIT\sensortests\SecurazeDiagnose\app\src\main\AndroidManifest.xml:26:5-28:36
	android:required
		ADDED from C:\Users\Marko\Desktop\Posao\BCoolIT\sensortests\SecurazeDiagnose\app\src\main\AndroidManifest.xml:28:9-33
	android:name
		ADDED from C:\Users\Marko\Desktop\Posao\BCoolIT\sensortests\SecurazeDiagnose\app\src\main\AndroidManifest.xml:27:9-57
uses-feature#android.hardware.camera
ADDED from C:\Users\Marko\Desktop\Posao\BCoolIT\sensortests\SecurazeDiagnose\app\src\main\AndroidManifest.xml:29:5-31:36
	android:required
		ADDED from C:\Users\Marko\Desktop\Posao\BCoolIT\sensortests\SecurazeDiagnose\app\src\main\AndroidManifest.xml:31:9-33
	android:name
		ADDED from C:\Users\Marko\Desktop\Posao\BCoolIT\sensortests\SecurazeDiagnose\app\src\main\AndroidManifest.xml:30:9-47
application
ADDED from C:\Users\Marko\Desktop\Posao\BCoolIT\sensortests\SecurazeDiagnose\app\src\main\AndroidManifest.xml:33:5-100:19
MERGED from [com.google.android.material:material:1.0.0] C:\Users\Marko\.gradle\caches\transforms-2\files-2.1\7be45ee3c07fb3d387ee2be5c0852f62\material-1.0.0\AndroidManifest.xml:22:5-20
MERGED from [com.google.android.material:material:1.0.0] C:\Users\Marko\.gradle\caches\transforms-2\files-2.1\7be45ee3c07fb3d387ee2be5c0852f62\material-1.0.0\AndroidManifest.xml:22:5-20
MERGED from [androidx.constraintlayout:constraintlayout:1.1.3] C:\Users\Marko\.gradle\caches\transforms-2\files-2.1\0e0fe41c067e2b2018d823d8c9a4ac07\constraintlayout-1.1.3\AndroidManifest.xml:9:5-20
MERGED from [androidx.constraintlayout:constraintlayout:1.1.3] C:\Users\Marko\.gradle\caches\transforms-2\files-2.1\0e0fe41c067e2b2018d823d8c9a4ac07\constraintlayout-1.1.3\AndroidManifest.xml:9:5-20
MERGED from [androidx.core:core:1.1.0] C:\Users\Marko\.gradle\caches\transforms-2\files-2.1\c69dff51eda740b9d8e41de9637149e8\core-1.1.0\AndroidManifest.xml:24:5-89
MERGED from [androidx.core:core:1.1.0] C:\Users\Marko\.gradle\caches\transforms-2\files-2.1\c69dff51eda740b9d8e41de9637149e8\core-1.1.0\AndroidManifest.xml:24:5-89
MERGED from [androidx.versionedparcelable:versionedparcelable:1.1.0] C:\Users\Marko\.gradle\caches\transforms-2\files-2.1\d0ea37240b8c08909789a805461c3b88\versionedparcelable-1.1.0\AndroidManifest.xml:24:5-25:19
MERGED from [androidx.versionedparcelable:versionedparcelable:1.1.0] C:\Users\Marko\.gradle\caches\transforms-2\files-2.1\d0ea37240b8c08909789a805461c3b88\versionedparcelable-1.1.0\AndroidManifest.xml:24:5-25:19
	android:appComponentFactory
		ADDED from [androidx.core:core:1.1.0] C:\Users\Marko\.gradle\caches\transforms-2\files-2.1\c69dff51eda740b9d8e41de9637149e8\core-1.1.0\AndroidManifest.xml:24:18-86
	android:supportsRtl
		ADDED from C:\Users\Marko\Desktop\Posao\BCoolIT\sensortests\SecurazeDiagnose\app\src\main\AndroidManifest.xml:38:9-35
	android:label
		ADDED from C:\Users\Marko\Desktop\Posao\BCoolIT\sensortests\SecurazeDiagnose\app\src\main\AndroidManifest.xml:36:9-41
	android:roundIcon
		ADDED from C:\Users\Marko\Desktop\Posao\BCoolIT\sensortests\SecurazeDiagnose\app\src\main\AndroidManifest.xml:37:9-54
	android:icon
		ADDED from C:\Users\Marko\Desktop\Posao\BCoolIT\sensortests\SecurazeDiagnose\app\src\main\AndroidManifest.xml:35:9-43
	android:allowBackup
		ADDED from C:\Users\Marko\Desktop\Posao\BCoolIT\sensortests\SecurazeDiagnose\app\src\main\AndroidManifest.xml:34:9-35
	android:theme
		ADDED from C:\Users\Marko\Desktop\Posao\BCoolIT\sensortests\SecurazeDiagnose\app\src\main\AndroidManifest.xml:39:9-40
activity#com.example.securazediagnose.activities.VolumeControll
ADDED from C:\Users\Marko\Desktop\Posao\BCoolIT\sensortests\SecurazeDiagnose\app\src\main\AndroidManifest.xml:40:9-72
	android:name
		ADDED from C:\Users\Marko\Desktop\Posao\BCoolIT\sensortests\SecurazeDiagnose\app\src\main\AndroidManifest.xml:40:19-60
activity#com.example.securazediagnose.activities.CameraVideo
ADDED from C:\Users\Marko\Desktop\Posao\BCoolIT\sensortests\SecurazeDiagnose\app\src\main\AndroidManifest.xml:41:9-60
	android:name
		ADDED from C:\Users\Marko\Desktop\Posao\BCoolIT\sensortests\SecurazeDiagnose\app\src\main\AndroidManifest.xml:41:19-57
activity#com.example.securazediagnose.activities.CameraPhoto
ADDED from C:\Users\Marko\Desktop\Posao\BCoolIT\sensortests\SecurazeDiagnose\app\src\main\AndroidManifest.xml:42:9-60
	android:name
		ADDED from C:\Users\Marko\Desktop\Posao\BCoolIT\sensortests\SecurazeDiagnose\app\src\main\AndroidManifest.xml:42:19-57
activity#com.example.securazediagnose.MainActivity
ADDED from C:\Users\Marko\Desktop\Posao\BCoolIT\sensortests\SecurazeDiagnose\app\src\main\AndroidManifest.xml:43:9-49:20
	android:name
		ADDED from C:\Users\Marko\Desktop\Posao\BCoolIT\sensortests\SecurazeDiagnose\app\src\main\AndroidManifest.xml:43:19-47
intent-filter#action:name:android.intent.action.MAIN+category:name:android.intent.category.LAUNCHER
ADDED from C:\Users\Marko\Desktop\Posao\BCoolIT\sensortests\SecurazeDiagnose\app\src\main\AndroidManifest.xml:44:13-48:29
action#android.intent.action.MAIN
ADDED from C:\Users\Marko\Desktop\Posao\BCoolIT\sensortests\SecurazeDiagnose\app\src\main\AndroidManifest.xml:45:17-69
	android:name
		ADDED from C:\Users\Marko\Desktop\Posao\BCoolIT\sensortests\SecurazeDiagnose\app\src\main\AndroidManifest.xml:45:25-66
category#android.intent.category.LAUNCHER
ADDED from C:\Users\Marko\Desktop\Posao\BCoolIT\sensortests\SecurazeDiagnose\app\src\main\AndroidManifest.xml:47:17-77
	android:name
		ADDED from C:\Users\Marko\Desktop\Posao\BCoolIT\sensortests\SecurazeDiagnose\app\src\main\AndroidManifest.xml:47:27-74
service#com.example.securazediagnose.services.connectivity.Bluetooth
ADDED from C:\Users\Marko\Desktop\Posao\BCoolIT\sensortests\SecurazeDiagnose\app\src\main\AndroidManifest.xml:51:9-53:39
	android:exported
		ADDED from C:\Users\Marko\Desktop\Posao\BCoolIT\sensortests\SecurazeDiagnose\app\src\main\AndroidManifest.xml:53:13-36
	android:name
		ADDED from C:\Users\Marko\Desktop\Posao\BCoolIT\sensortests\SecurazeDiagnose\app\src\main\AndroidManifest.xml:52:13-60
service#com.example.securazediagnose.services.connectivity.Wifi
ADDED from C:\Users\Marko\Desktop\Posao\BCoolIT\sensortests\SecurazeDiagnose\app\src\main\AndroidManifest.xml:54:9-56:39
	android:exported
		ADDED from C:\Users\Marko\Desktop\Posao\BCoolIT\sensortests\SecurazeDiagnose\app\src\main\AndroidManifest.xml:56:13-36
	android:name
		ADDED from C:\Users\Marko\Desktop\Posao\BCoolIT\sensortests\SecurazeDiagnose\app\src\main\AndroidManifest.xml:55:13-55
service#com.example.securazediagnose.services.sensors.Gravity
ADDED from C:\Users\Marko\Desktop\Posao\BCoolIT\sensortests\SecurazeDiagnose\app\src\main\AndroidManifest.xml:57:9-59:39
	android:exported
		ADDED from C:\Users\Marko\Desktop\Posao\BCoolIT\sensortests\SecurazeDiagnose\app\src\main\AndroidManifest.xml:59:13-36
	android:name
		ADDED from C:\Users\Marko\Desktop\Posao\BCoolIT\sensortests\SecurazeDiagnose\app\src\main\AndroidManifest.xml:58:13-53
service#com.example.securazediagnose.services.sensors.Accelerometer
ADDED from C:\Users\Marko\Desktop\Posao\BCoolIT\sensortests\SecurazeDiagnose\app\src\main\AndroidManifest.xml:60:9-62:39
	android:exported
		ADDED from C:\Users\Marko\Desktop\Posao\BCoolIT\sensortests\SecurazeDiagnose\app\src\main\AndroidManifest.xml:62:13-36
	android:name
		ADDED from C:\Users\Marko\Desktop\Posao\BCoolIT\sensortests\SecurazeDiagnose\app\src\main\AndroidManifest.xml:61:13-59
service#com.example.securazediagnose.services.sensors.SignificantMotion
ADDED from C:\Users\Marko\Desktop\Posao\BCoolIT\sensortests\SecurazeDiagnose\app\src\main\AndroidManifest.xml:63:9-65:39
	android:exported
		ADDED from C:\Users\Marko\Desktop\Posao\BCoolIT\sensortests\SecurazeDiagnose\app\src\main\AndroidManifest.xml:65:13-36
	android:name
		ADDED from C:\Users\Marko\Desktop\Posao\BCoolIT\sensortests\SecurazeDiagnose\app\src\main\AndroidManifest.xml:64:13-63
service#com.example.securazediagnose.services.sensors.Gyroscope
ADDED from C:\Users\Marko\Desktop\Posao\BCoolIT\sensortests\SecurazeDiagnose\app\src\main\AndroidManifest.xml:66:9-68:39
	android:exported
		ADDED from C:\Users\Marko\Desktop\Posao\BCoolIT\sensortests\SecurazeDiagnose\app\src\main\AndroidManifest.xml:68:13-36
	android:name
		ADDED from C:\Users\Marko\Desktop\Posao\BCoolIT\sensortests\SecurazeDiagnose\app\src\main\AndroidManifest.xml:67:13-55
service#com.example.securazediagnose.services.sensors.Proximity
ADDED from C:\Users\Marko\Desktop\Posao\BCoolIT\sensortests\SecurazeDiagnose\app\src\main\AndroidManifest.xml:69:9-71:39
	android:exported
		ADDED from C:\Users\Marko\Desktop\Posao\BCoolIT\sensortests\SecurazeDiagnose\app\src\main\AndroidManifest.xml:71:13-36
	android:name
		ADDED from C:\Users\Marko\Desktop\Posao\BCoolIT\sensortests\SecurazeDiagnose\app\src\main\AndroidManifest.xml:70:13-55
service#com.example.securazediagnose.services.GPS
ADDED from C:\Users\Marko\Desktop\Posao\BCoolIT\sensortests\SecurazeDiagnose\app\src\main\AndroidManifest.xml:72:9-74:39
	android:exported
		ADDED from C:\Users\Marko\Desktop\Posao\BCoolIT\sensortests\SecurazeDiagnose\app\src\main\AndroidManifest.xml:74:13-36
	android:name
		ADDED from C:\Users\Marko\Desktop\Posao\BCoolIT\sensortests\SecurazeDiagnose\app\src\main\AndroidManifest.xml:73:13-41
service#com.example.securazediagnose.services.buttons.homeAndRecents.HomeAndRecentsButtonService
ADDED from C:\Users\Marko\Desktop\Posao\BCoolIT\sensortests\SecurazeDiagnose\app\src\main\AndroidManifest.xml:75:9-77:39
	android:exported
		ADDED from C:\Users\Marko\Desktop\Posao\BCoolIT\sensortests\SecurazeDiagnose\app\src\main\AndroidManifest.xml:77:13-36
	android:name
		ADDED from C:\Users\Marko\Desktop\Posao\BCoolIT\sensortests\SecurazeDiagnose\app\src\main\AndroidManifest.xml:76:13-88
service#com.example.securazediagnose.services.connectivity.SimAndSignal
ADDED from C:\Users\Marko\Desktop\Posao\BCoolIT\sensortests\SecurazeDiagnose\app\src\main\AndroidManifest.xml:78:9-80:39
	android:exported
		ADDED from C:\Users\Marko\Desktop\Posao\BCoolIT\sensortests\SecurazeDiagnose\app\src\main\AndroidManifest.xml:80:13-36
	android:name
		ADDED from C:\Users\Marko\Desktop\Posao\BCoolIT\sensortests\SecurazeDiagnose\app\src\main\AndroidManifest.xml:79:13-63
service#com.example.securazediagnose.services.sensors.Compass
ADDED from C:\Users\Marko\Desktop\Posao\BCoolIT\sensortests\SecurazeDiagnose\app\src\main\AndroidManifest.xml:81:9-83:39
	android:exported
		ADDED from C:\Users\Marko\Desktop\Posao\BCoolIT\sensortests\SecurazeDiagnose\app\src\main\AndroidManifest.xml:83:13-36
	android:name
		ADDED from C:\Users\Marko\Desktop\Posao\BCoolIT\sensortests\SecurazeDiagnose\app\src\main\AndroidManifest.xml:82:13-53
service#com.example.securazediagnose.services.sensors.Temperature
ADDED from C:\Users\Marko\Desktop\Posao\BCoolIT\sensortests\SecurazeDiagnose\app\src\main\AndroidManifest.xml:84:9-86:39
	android:exported
		ADDED from C:\Users\Marko\Desktop\Posao\BCoolIT\sensortests\SecurazeDiagnose\app\src\main\AndroidManifest.xml:86:13-36
	android:name
		ADDED from C:\Users\Marko\Desktop\Posao\BCoolIT\sensortests\SecurazeDiagnose\app\src\main\AndroidManifest.xml:85:13-57
service#com.example.securazediagnose.services.sensors.Barometer
ADDED from C:\Users\Marko\Desktop\Posao\BCoolIT\sensortests\SecurazeDiagnose\app\src\main\AndroidManifest.xml:87:9-89:39
	android:exported
		ADDED from C:\Users\Marko\Desktop\Posao\BCoolIT\sensortests\SecurazeDiagnose\app\src\main\AndroidManifest.xml:89:13-36
	android:name
		ADDED from C:\Users\Marko\Desktop\Posao\BCoolIT\sensortests\SecurazeDiagnose\app\src\main\AndroidManifest.xml:88:13-55
service#com.example.securazediagnose.services.sensors.Fingerprint
ADDED from C:\Users\Marko\Desktop\Posao\BCoolIT\sensortests\SecurazeDiagnose\app\src\main\AndroidManifest.xml:90:9-92:39
	android:exported
		ADDED from C:\Users\Marko\Desktop\Posao\BCoolIT\sensortests\SecurazeDiagnose\app\src\main\AndroidManifest.xml:92:13-36
	android:name
		ADDED from C:\Users\Marko\Desktop\Posao\BCoolIT\sensortests\SecurazeDiagnose\app\src\main\AndroidManifest.xml:91:13-57
service#com.example.securazediagnose.services.media.PlaySound
ADDED from C:\Users\Marko\Desktop\Posao\BCoolIT\sensortests\SecurazeDiagnose\app\src\main\AndroidManifest.xml:93:9-95:39
	android:exported
		ADDED from C:\Users\Marko\Desktop\Posao\BCoolIT\sensortests\SecurazeDiagnose\app\src\main\AndroidManifest.xml:95:13-36
	android:name
		ADDED from C:\Users\Marko\Desktop\Posao\BCoolIT\sensortests\SecurazeDiagnose\app\src\main\AndroidManifest.xml:94:13-53
service#com.example.securazediagnose.services.media.AudioRecorder
ADDED from C:\Users\Marko\Desktop\Posao\BCoolIT\sensortests\SecurazeDiagnose\app\src\main\AndroidManifest.xml:96:9-98:39
	android:exported
		ADDED from C:\Users\Marko\Desktop\Posao\BCoolIT\sensortests\SecurazeDiagnose\app\src\main\AndroidManifest.xml:98:13-36
	android:name
		ADDED from C:\Users\Marko\Desktop\Posao\BCoolIT\sensortests\SecurazeDiagnose\app\src\main\AndroidManifest.xml:97:13-57
uses-sdk
INJECTED from C:\Users\Marko\Desktop\Posao\BCoolIT\sensortests\SecurazeDiagnose\app\src\main\AndroidManifest.xml reason: use-sdk injection requested
INJECTED from C:\Users\Marko\Desktop\Posao\BCoolIT\sensortests\SecurazeDiagnose\app\src\main\AndroidManifest.xml
INJECTED from C:\Users\Marko\Desktop\Posao\BCoolIT\sensortests\SecurazeDiagnose\app\src\main\AndroidManifest.xml
MERGED from [com.google.android.material:material:1.0.0] C:\Users\Marko\.gradle\caches\transforms-2\files-2.1\7be45ee3c07fb3d387ee2be5c0852f62\material-1.0.0\AndroidManifest.xml:20:5-44
MERGED from [com.google.android.material:material:1.0.0] C:\Users\Marko\.gradle\caches\transforms-2\files-2.1\7be45ee3c07fb3d387ee2be5c0852f62\material-1.0.0\AndroidManifest.xml:20:5-44
MERGED from [androidx.appcompat:appcompat:1.1.0] C:\Users\Marko\.gradle\caches\transforms-2\files-2.1\71253392faec5a8e0f4f575c1c9c6a8b\appcompat-1.1.0\AndroidManifest.xml:20:5-22:41
MERGED from [androidx.appcompat:appcompat:1.1.0] C:\Users\Marko\.gradle\caches\transforms-2\files-2.1\71253392faec5a8e0f4f575c1c9c6a8b\appcompat-1.1.0\AndroidManifest.xml:20:5-22:41
MERGED from [androidx.constraintlayout:constraintlayout:1.1.3] C:\Users\Marko\.gradle\caches\transforms-2\files-2.1\0e0fe41c067e2b2018d823d8c9a4ac07\constraintlayout-1.1.3\AndroidManifest.xml:5:5-7:41
MERGED from [androidx.constraintlayout:constraintlayout:1.1.3] C:\Users\Marko\.gradle\caches\transforms-2\files-2.1\0e0fe41c067e2b2018d823d8c9a4ac07\constraintlayout-1.1.3\AndroidManifest.xml:5:5-7:41
MERGED from [androidx.legacy:legacy-support-v4:1.0.0] C:\Users\Marko\.gradle\caches\transforms-2\files-2.1\69158a490d837cbf451556bacc034d65\legacy-support-v4-1.0.0\AndroidManifest.xml:20:5-44
MERGED from [androidx.legacy:legacy-support-v4:1.0.0] C:\Users\Marko\.gradle\caches\transforms-2\files-2.1\69158a490d837cbf451556bacc034d65\legacy-support-v4-1.0.0\AndroidManifest.xml:20:5-44
MERGED from [androidx.recyclerview:recyclerview:1.1.0] C:\Users\Marko\.gradle\caches\transforms-2\files-2.1\3e05208cda78cf969ab04b730f953742\recyclerview-1.1.0\AndroidManifest.xml:20:5-22:41
MERGED from [androidx.recyclerview:recyclerview:1.1.0] C:\Users\Marko\.gradle\caches\transforms-2\files-2.1\3e05208cda78cf969ab04b730f953742\recyclerview-1.1.0\AndroidManifest.xml:20:5-22:41
MERGED from [androidx.fragment:fragment:1.1.0] C:\Users\Marko\.gradle\caches\transforms-2\files-2.1\b1c311e5aba9f3af0345511bded4aec1\fragment-1.1.0\AndroidManifest.xml:20:5-22:41
MERGED from [androidx.fragment:fragment:1.1.0] C:\Users\Marko\.gradle\caches\transforms-2\files-2.1\b1c311e5aba9f3af0345511bded4aec1\fragment-1.1.0\AndroidManifest.xml:20:5-22:41
MERGED from [androidx.appcompat:appcompat-resources:1.1.0] C:\Users\Marko\.gradle\caches\transforms-2\files-2.1\1a323d19f6f8ffabf3a6554a32da4fcf\appcompat-resources-1.1.0\AndroidManifest.xml:20:5-22:41
MERGED from [androidx.appcompat:appcompat-resources:1.1.0] C:\Users\Marko\.gradle\caches\transforms-2\files-2.1\1a323d19f6f8ffabf3a6554a32da4fcf\appcompat-resources-1.1.0\AndroidManifest.xml:20:5-22:41
MERGED from [androidx.legacy:legacy-support-core-ui:1.0.0] C:\Users\Marko\.gradle\caches\transforms-2\files-2.1\48728fc3be15cb5e686e524e85e7fabf\legacy-support-core-ui-1.0.0\AndroidManifest.xml:20:5-44
MERGED from [androidx.legacy:legacy-support-core-ui:1.0.0] C:\Users\Marko\.gradle\caches\transforms-2\files-2.1\48728fc3be15cb5e686e524e85e7fabf\legacy-support-core-ui-1.0.0\AndroidManifest.xml:20:5-44
MERGED from [androidx.drawerlayout:drawerlayout:1.0.0] C:\Users\Marko\.gradle\caches\transforms-2\files-2.1\5beee82e5ae80fcfe800829e26780711\drawerlayout-1.0.0\AndroidManifest.xml:20:5-44
MERGED from [androidx.drawerlayout:drawerlayout:1.0.0] C:\Users\Marko\.gradle\caches\transforms-2\files-2.1\5beee82e5ae80fcfe800829e26780711\drawerlayout-1.0.0\AndroidManifest.xml:20:5-44
MERGED from [androidx.media:media:1.0.0] C:\Users\Marko\.gradle\caches\transforms-2\files-2.1\f966514bbf29a49db992e0518d391321\media-1.0.0\AndroidManifest.xml:20:5-44
MERGED from [androidx.media:media:1.0.0] C:\Users\Marko\.gradle\caches\transforms-2\files-2.1\f966514bbf29a49db992e0518d391321\media-1.0.0\AndroidManifest.xml:20:5-44
MERGED from [androidx.legacy:legacy-support-core-utils:1.0.0] C:\Users\Marko\.gradle\caches\transforms-2\files-2.1\888a191c239c67b979e9291108e5d8bb\legacy-support-core-utils-1.0.0\AndroidManifest.xml:20:5-44
MERGED from [androidx.legacy:legacy-support-core-utils:1.0.0] C:\Users\Marko\.gradle\caches\transforms-2\files-2.1\888a191c239c67b979e9291108e5d8bb\legacy-support-core-utils-1.0.0\AndroidManifest.xml:20:5-44
MERGED from [androidx.viewpager:viewpager:1.0.0] C:\Users\Marko\.gradle\caches\transforms-2\files-2.1\0a6198b370cb00308b55faa5e39a04c3\viewpager-1.0.0\AndroidManifest.xml:20:5-44
MERGED from [androidx.viewpager:viewpager:1.0.0] C:\Users\Marko\.gradle\caches\transforms-2\files-2.1\0a6198b370cb00308b55faa5e39a04c3\viewpager-1.0.0\AndroidManifest.xml:20:5-44
MERGED from [androidx.coordinatorlayout:coordinatorlayout:1.0.0] C:\Users\Marko\.gradle\caches\transforms-2\files-2.1\0acb35ffd4f76c94f541b2dbd86c08e1\coordinatorlayout-1.0.0\AndroidManifest.xml:20:5-44
MERGED from [androidx.coordinatorlayout:coordinatorlayout:1.0.0] C:\Users\Marko\.gradle\caches\transforms-2\files-2.1\0acb35ffd4f76c94f541b2dbd86c08e1\coordinatorlayout-1.0.0\AndroidManifest.xml:20:5-44
MERGED from [androidx.slidingpanelayout:slidingpanelayout:1.0.0] C:\Users\Marko\.gradle\caches\transforms-2\files-2.1\14eb8b7a6577bf32f1e430b5e6efcd8e\slidingpanelayout-1.0.0\AndroidManifest.xml:20:5-44
MERGED from [androidx.slidingpanelayout:slidingpanelayout:1.0.0] C:\Users\Marko\.gradle\caches\transforms-2\files-2.1\14eb8b7a6577bf32f1e430b5e6efcd8e\slidingpanelayout-1.0.0\AndroidManifest.xml:20:5-44
MERGED from [androidx.customview:customview:1.0.0] C:\Users\Marko\.gradle\caches\transforms-2\files-2.1\f1986a27226319c26ad9cc06042f734a\customview-1.0.0\AndroidManifest.xml:20:5-44
MERGED from [androidx.customview:customview:1.0.0] C:\Users\Marko\.gradle\caches\transforms-2\files-2.1\f1986a27226319c26ad9cc06042f734a\customview-1.0.0\AndroidManifest.xml:20:5-44
MERGED from [androidx.transition:transition:1.0.0] C:\Users\Marko\.gradle\caches\transforms-2\files-2.1\f195ef5065fc49f8b7e113c5bea74720\transition-1.0.0\AndroidManifest.xml:20:5-44
MERGED from [androidx.transition:transition:1.0.0] C:\Users\Marko\.gradle\caches\transforms-2\files-2.1\f195ef5065fc49f8b7e113c5bea74720\transition-1.0.0\AndroidManifest.xml:20:5-44
MERGED from [androidx.loader:loader:1.0.0] C:\Users\Marko\.gradle\caches\transforms-2\files-2.1\ca29a0e07fb08e384809dd4651a8ea16\loader-1.0.0\AndroidManifest.xml:20:5-44
MERGED from [androidx.loader:loader:1.0.0] C:\Users\Marko\.gradle\caches\transforms-2\files-2.1\ca29a0e07fb08e384809dd4651a8ea16\loader-1.0.0\AndroidManifest.xml:20:5-44
MERGED from [androidx.activity:activity:1.0.0] C:\Users\Marko\.gradle\caches\transforms-2\files-2.1\ac3ef5c9673bd27c40eacec46e2c5b0d\activity-1.0.0\AndroidManifest.xml:20:5-22:41
MERGED from [androidx.activity:activity:1.0.0] C:\Users\Marko\.gradle\caches\transforms-2\files-2.1\ac3ef5c9673bd27c40eacec46e2c5b0d\activity-1.0.0\AndroidManifest.xml:20:5-22:41
MERGED from [androidx.vectordrawable:vectordrawable-animated:1.1.0] C:\Users\Marko\.gradle\caches\transforms-2\files-2.1\c9bf732cc1a9b5e774d98ba20fae0497\vectordrawable-animated-1.1.0\AndroidManifest.xml:20:5-22:41
MERGED from [androidx.vectordrawable:vectordrawable-animated:1.1.0] C:\Users\Marko\.gradle\caches\transforms-2\files-2.1\c9bf732cc1a9b5e774d98ba20fae0497\vectordrawable-animated-1.1.0\AndroidManifest.xml:20:5-22:41
MERGED from [androidx.vectordrawable:vectordrawable:1.1.0] C:\Users\Marko\.gradle\caches\transforms-2\files-2.1\1b20c722bc691b927fab492e4d108a6d\vectordrawable-1.1.0\AndroidManifest.xml:20:5-22:41
MERGED from [androidx.vectordrawable:vectordrawable:1.1.0] C:\Users\Marko\.gradle\caches\transforms-2\files-2.1\1b20c722bc691b927fab492e4d108a6d\vectordrawable-1.1.0\AndroidManifest.xml:20:5-22:41
MERGED from [androidx.swiperefreshlayout:swiperefreshlayout:1.0.0] C:\Users\Marko\.gradle\caches\transforms-2\files-2.1\ca312c99fbfc3bf90490b571cc0b4011\swiperefreshlayout-1.0.0\AndroidManifest.xml:20:5-44
MERGED from [androidx.swiperefreshlayout:swiperefreshlayout:1.0.0] C:\Users\Marko\.gradle\caches\transforms-2\files-2.1\ca312c99fbfc3bf90490b571cc0b4011\swiperefreshlayout-1.0.0\AndroidManifest.xml:20:5-44
MERGED from [androidx.asynclayoutinflater:asynclayoutinflater:1.0.0] C:\Users\Marko\.gradle\caches\transforms-2\files-2.1\00a27da1e6f769f8fb1788101112184b\asynclayoutinflater-1.0.0\AndroidManifest.xml:20:5-44
MERGED from [androidx.asynclayoutinflater:asynclayoutinflater:1.0.0] C:\Users\Marko\.gradle\caches\transforms-2\files-2.1\00a27da1e6f769f8fb1788101112184b\asynclayoutinflater-1.0.0\AndroidManifest.xml:20:5-44
MERGED from [androidx.core:core:1.1.0] C:\Users\Marko\.gradle\caches\transforms-2\files-2.1\c69dff51eda740b9d8e41de9637149e8\core-1.1.0\AndroidManifest.xml:20:5-22:41
MERGED from [androidx.core:core:1.1.0] C:\Users\Marko\.gradle\caches\transforms-2\files-2.1\c69dff51eda740b9d8e41de9637149e8\core-1.1.0\AndroidManifest.xml:20:5-22:41
MERGED from [androidx.cursoradapter:cursoradapter:1.0.0] C:\Users\Marko\.gradle\caches\transforms-2\files-2.1\e5e374c843b6cb1589a5476668cd23d4\cursoradapter-1.0.0\AndroidManifest.xml:20:5-44
MERGED from [androidx.cursoradapter:cursoradapter:1.0.0] C:\Users\Marko\.gradle\caches\transforms-2\files-2.1\e5e374c843b6cb1589a5476668cd23d4\cursoradapter-1.0.0\AndroidManifest.xml:20:5-44
MERGED from [androidx.cardview:cardview:1.0.0] C:\Users\Marko\.gradle\caches\transforms-2\files-2.1\e2a1a382ba7c1384f9093f92f5c6ea6f\cardview-1.0.0\AndroidManifest.xml:20:5-44
MERGED from [androidx.cardview:cardview:1.0.0] C:\Users\Marko\.gradle\caches\transforms-2\files-2.1\e2a1a382ba7c1384f9093f92f5c6ea6f\cardview-1.0.0\AndroidManifest.xml:20:5-44
MERGED from [androidx.versionedparcelable:versionedparcelable:1.1.0] C:\Users\Marko\.gradle\caches\transforms-2\files-2.1\d0ea37240b8c08909789a805461c3b88\versionedparcelable-1.1.0\AndroidManifest.xml:20:5-22:41
MERGED from [androidx.versionedparcelable:versionedparcelable:1.1.0] C:\Users\Marko\.gradle\caches\transforms-2\files-2.1\d0ea37240b8c08909789a805461c3b88\versionedparcelable-1.1.0\AndroidManifest.xml:20:5-22:41
MERGED from [androidx.documentfile:documentfile:1.0.0] C:\Users\Marko\.gradle\caches\transforms-2\files-2.1\defe0751ac7888b9aa596f170a8ee873\documentfile-1.0.0\AndroidManifest.xml:20:5-44
MERGED from [androidx.documentfile:documentfile:1.0.0] C:\Users\Marko\.gradle\caches\transforms-2\files-2.1\defe0751ac7888b9aa596f170a8ee873\documentfile-1.0.0\AndroidManifest.xml:20:5-44
MERGED from [androidx.localbroadcastmanager:localbroadcastmanager:1.0.0] C:\Users\Marko\.gradle\caches\transforms-2\files-2.1\fcd38210d0f48f994e7225ffc9ea40e0\localbroadcastmanager-1.0.0\AndroidManifest.xml:20:5-44
MERGED from [androidx.localbroadcastmanager:localbroadcastmanager:1.0.0] C:\Users\Marko\.gradle\caches\transforms-2\files-2.1\fcd38210d0f48f994e7225ffc9ea40e0\localbroadcastmanager-1.0.0\AndroidManifest.xml:20:5-44
MERGED from [androidx.print:print:1.0.0] C:\Users\Marko\.gradle\caches\transforms-2\files-2.1\169ff925d31c56a8bb3c241ae3dcc5b9\print-1.0.0\AndroidManifest.xml:20:5-44
MERGED from [androidx.print:print:1.0.0] C:\Users\Marko\.gradle\caches\transforms-2\files-2.1\169ff925d31c56a8bb3c241ae3dcc5b9\print-1.0.0\AndroidManifest.xml:20:5-44
MERGED from [androidx.interpolator:interpolator:1.0.0] C:\Users\Marko\.gradle\caches\transforms-2\files-2.1\da9110a1a889043c81fffacfb5ad5d5d\interpolator-1.0.0\AndroidManifest.xml:20:5-44
MERGED from [androidx.interpolator:interpolator:1.0.0] C:\Users\Marko\.gradle\caches\transforms-2\files-2.1\da9110a1a889043c81fffacfb5ad5d5d\interpolator-1.0.0\AndroidManifest.xml:20:5-44
MERGED from [androidx.lifecycle:lifecycle-runtime:2.1.0] C:\Users\Marko\.gradle\caches\transforms-2\files-2.1\9c3b184d9a47f47ae8db4aac6eab8def\lifecycle-runtime-2.1.0\AndroidManifest.xml:20:5-44
MERGED from [androidx.lifecycle:lifecycle-runtime:2.1.0] C:\Users\Marko\.gradle\caches\transforms-2\files-2.1\9c3b184d9a47f47ae8db4aac6eab8def\lifecycle-runtime-2.1.0\AndroidManifest.xml:20:5-44
MERGED from [androidx.lifecycle:lifecycle-viewmodel:2.1.0] C:\Users\Marko\.gradle\caches\transforms-2\files-2.1\d8e5b39117b461360a22101a391bc9c6\lifecycle-viewmodel-2.1.0\AndroidManifest.xml:20:5-44
MERGED from [androidx.lifecycle:lifecycle-viewmodel:2.1.0] C:\Users\Marko\.gradle\caches\transforms-2\files-2.1\d8e5b39117b461360a22101a391bc9c6\lifecycle-viewmodel-2.1.0\AndroidManifest.xml:20:5-44
MERGED from [androidx.savedstate:savedstate:1.0.0] C:\Users\Marko\.gradle\caches\transforms-2\files-2.1\3aa83e6e75b8a30f03b938590aafdd76\savedstate-1.0.0\AndroidManifest.xml:20:5-22:41
MERGED from [androidx.savedstate:savedstate:1.0.0] C:\Users\Marko\.gradle\caches\transforms-2\files-2.1\3aa83e6e75b8a30f03b938590aafdd76\savedstate-1.0.0\AndroidManifest.xml:20:5-22:41
MERGED from [androidx.lifecycle:lifecycle-livedata:2.0.0] C:\Users\Marko\.gradle\caches\transforms-2\files-2.1\2180419d599ac4cc6581f5869fe8a168\lifecycle-livedata-2.0.0\AndroidManifest.xml:20:5-44
MERGED from [androidx.lifecycle:lifecycle-livedata:2.0.0] C:\Users\Marko\.gradle\caches\transforms-2\files-2.1\2180419d599ac4cc6581f5869fe8a168\lifecycle-livedata-2.0.0\AndroidManifest.xml:20:5-44
MERGED from [androidx.lifecycle:lifecycle-livedata-core:2.0.0] C:\Users\Marko\.gradle\caches\transforms-2\files-2.1\219a1c92e4147b4b27ae72aa4a9f1dfc\lifecycle-livedata-core-2.0.0\AndroidManifest.xml:20:5-44
MERGED from [androidx.lifecycle:lifecycle-livedata-core:2.0.0] C:\Users\Marko\.gradle\caches\transforms-2\files-2.1\219a1c92e4147b4b27ae72aa4a9f1dfc\lifecycle-livedata-core-2.0.0\AndroidManifest.xml:20:5-44
MERGED from [androidx.arch.core:core-runtime:2.0.0] C:\Users\Marko\.gradle\caches\transforms-2\files-2.1\bd8e1bf22055b7f0592a240dfb63a736\core-runtime-2.0.0\AndroidManifest.xml:20:5-44
MERGED from [androidx.arch.core:core-runtime:2.0.0] C:\Users\Marko\.gradle\caches\transforms-2\files-2.1\bd8e1bf22055b7f0592a240dfb63a736\core-runtime-2.0.0\AndroidManifest.xml:20:5-44
INJECTED from C:\Users\Marko\Desktop\Posao\BCoolIT\sensortests\SecurazeDiagnose\app\src\main\AndroidManifest.xml
INJECTED from C:\Users\Marko\Desktop\Posao\BCoolIT\sensortests\SecurazeDiagnose\app\src\main\AndroidManifest.xml
	android:targetSdkVersion
		INJECTED from C:\Users\Marko\Desktop\Posao\BCoolIT\sensortests\SecurazeDiagnose\app\src\main\AndroidManifest.xml
		ADDED from C:\Users\Marko\Desktop\Posao\BCoolIT\sensortests\SecurazeDiagnose\app\src\main\AndroidManifest.xml
		INJECTED from C:\Users\Marko\Desktop\Posao\BCoolIT\sensortests\SecurazeDiagnose\app\src\main\AndroidManifest.xml
	android:minSdkVersion
		INJECTED from C:\Users\Marko\Desktop\Posao\BCoolIT\sensortests\SecurazeDiagnose\app\src\main\AndroidManifest.xml
		ADDED from C:\Users\Marko\Desktop\Posao\BCoolIT\sensortests\SecurazeDiagnose\app\src\main\AndroidManifest.xml
		INJECTED from C:\Users\Marko\Desktop\Posao\BCoolIT\sensortests\SecurazeDiagnose\app\src\main\AndroidManifest.xml
